{
  "standardHTTPErrors":[
    {"code":401,"message":"unauthorised"},
    {"code":408,"message":"request time out"},
    { "code": 400, "message": "Bad Request" },
    { "code": 500, "message": "Internal Server Error"},
    {"code": 501, "message": "Service Unavailable"}
],
  "success":[
    {"code":200,"message":{"status":"ok"}},
    {"code":201,"message":{"status":"created"}},
    {"code":202,"message":{"status":"accepted"}}
  ],
  "connectionError":{"code":303,"message":"connection error"},
  "EmailErrorMessage": {"code":302,"message":"email is already exist"}
}